<svg width="48" height="48" viewBox="0 0 48 48" fill="none" xmlns="http://www.w3.org/2000/svg">
<circle cx="24" cy="24" r="24" fill="#9CE9FA"/>
<path d="M33 27C33 29.3869 32.0518 31.6761 30.364 33.364C28.6761 35.0518 26.3869 36 24 36C21.6131 36 19.3239 35.0518 17.636 33.364C15.9482 31.6761 15 29.3869 15 27" stroke="black" stroke-width="3" stroke-linejoin="round"/>
<path d="M24 14V20.5M24 36V20.5M24 20.5H28H20" stroke="black" stroke-width="3" stroke-linecap="round" stroke-linejoin="round"/>
<circle cx="24" cy="14" r="3" fill="black"/>
</svg>
