<svg width="33" height="33" viewBox="0 0 33 33" fill="none" xmlns="http://www.w3.org/2000/svg">
<g clip-path="url(#clip0)">
<path d="M12.375 16.125H9.625V18.875H12.375V16.125ZM17.875 16.125H15.125V18.875H17.875V16.125ZM23.375 16.125H20.625V18.875H23.375V16.125ZM26.125 6.5H24.75V3.75H22V6.5H11V3.75H8.25V6.5H6.875C5.34875 6.5 4.13875 7.7375 4.13875 9.25L4.125 28.5C4.125 30.0125 5.34875 31.25 6.875 31.25H26.125C27.6375 31.25 28.875 30.0125 28.875 28.5V9.25C28.875 7.7375 27.6375 6.5 26.125 6.5ZM26.125 28.5H6.875V13.375H26.125V28.5Z" fill="black"/>
<rect x="7" y="9" width="19" height="2" fill="#96E1F2"/>
</g>
<defs>
<clipPath id="clip0">
<rect width="33" height="33" fill="white"/>
</clipPath>
</defs>
</svg>
