<svg width="250" height="131" viewBox="0 0 250 131" fill="none" xmlns="http://www.w3.org/2000/svg">
<circle cx="75.5001" cy="50.5" r="32.5" transform="rotate(-30 75.5001 50.5)" fill="black"/>
<path d="M18.9944 46.5207C21.2263 46.5207 23.2761 46.1353 25.1436 45.3645C27.0567 44.5483 28.6738 43.3695 29.9947 41.8278L32.7277 44.9564C31.1335 46.8608 29.152 48.3117 26.7834 49.3092C24.4148 50.3068 21.7957 50.8055 18.9261 50.8055C15.2365 50.8055 11.9569 50.0347 9.08724 48.4931C6.21759 46.9061 3.98563 44.7297 2.39138 41.9639C0.797126 39.198 0 36.0694 0 32.5781C0 29.0868 0.751576 25.9582 2.25473 23.1923C3.80343 20.4265 5.92151 18.2728 8.60896 16.7311C11.2964 15.1895 14.3483 14.4187 17.7645 14.4187C20.953 14.4187 23.8227 15.1442 26.3735 16.5951C28.9699 18.046 31.0196 20.0638 32.5228 22.6482C34.0715 25.2327 34.8914 28.1799 34.9825 31.4899L5.46601 37.203C6.37701 40.1049 8.01681 42.3946 10.3854 44.0723C12.7996 45.7046 15.6692 46.5207 18.9944 46.5207ZM17.7645 18.5675C15.2593 18.5675 13.0045 19.1569 11.0003 20.3358C9.04169 21.4694 7.49299 23.079 6.35424 25.1647C5.26103 27.2051 4.71443 29.5629 4.71443 32.238C4.71443 32.9182 4.73721 33.4169 4.78276 33.7343L30.1314 28.8374C29.5848 25.8448 28.1955 23.3964 25.9635 21.492C23.7316 19.5423 20.9986 18.5675 17.7645 18.5675Z" fill="white"/>
<path d="M66.7446 50.4655L55.3343 35.5027L43.8557 50.4655H38.3896L52.6013 32.102L39.0729 14.6908H44.5389L55.3343 28.7014L66.1296 14.6908H71.459L57.9306 32.102L72.2789 50.4655H66.7446Z" fill="white"/>
<path d="M112.072 14.6908V46.1126C112.072 52.1885 110.683 56.6773 107.905 59.5792C105.126 62.5264 100.935 64 95.3327 64C92.1898 64 85.9415 63.3652 83.1173 62.3677C74.7282 59.6812 68.4755 52.1884 66.7446 50.4655H72.2789C73.8276 52.0071 77.0004 55.4304 84.5522 58.2869C86.8297 59.1484 92.5314 59.7152 95.1278 59.7152C99.2728 59.7152 102.325 58.6497 104.283 56.5186C106.242 54.4329 107.221 51.1683 107.221 46.7248V42.576C105.946 44.6617 104.192 46.2713 101.96 47.4049C99.7739 48.5384 97.2914 49.1052 94.5128 49.1052C89.8212 49.1052 86.1089 47.813 83.3759 45.2285C80.6884 42.5987 79.3447 38.7673 79.3447 33.7343V14.6908H84.1958V33.2582C84.1958 37.0216 85.1295 39.8781 86.9971 41.8278C88.8646 43.7775 91.5293 44.7524 94.9911 44.7524C98.7718 44.7524 101.755 43.6188 103.942 41.3517C106.128 39.0393 107.221 35.8427 107.221 31.762V14.6908H112.072Z" fill="white"/>
<path d="M144.175 14.4187C147.546 14.4187 150.598 15.1895 153.331 16.7311C156.064 18.2274 158.204 20.3585 159.753 23.1243C161.302 25.8902 162.076 29.0415 162.076 32.5781C162.076 36.1148 161.302 39.266 159.753 42.0319C158.204 44.7977 156.064 46.9515 153.331 48.4931C150.598 50.0347 147.546 50.8055 144.175 50.8055C141.169 50.8055 138.459 50.1707 136.044 48.9012C133.676 47.6316 131.763 45.7953 130.305 43.3921V50.4655H125.659V0H130.51V21.492C132.013 19.1796 133.926 17.4339 136.249 16.255C138.618 15.0308 141.26 14.4187 144.175 14.4187ZM143.833 46.5207C146.339 46.5207 148.616 45.9539 150.666 44.8204C152.716 43.6415 154.31 41.9865 155.449 39.8555C156.633 37.7244 157.225 35.2986 157.225 32.5781C157.225 29.8576 156.633 27.4318 155.449 25.3007C154.31 23.1697 152.716 21.5374 150.666 20.4038C148.616 19.2249 146.339 18.6355 143.833 18.6355C141.283 18.6355 138.982 19.2249 136.933 20.4038C134.928 21.5374 133.334 23.1697 132.15 25.3007C131.011 27.4318 130.442 29.8576 130.442 32.5781C130.442 35.2986 131.011 37.7244 132.15 39.8555C133.334 41.9865 134.928 43.6415 136.933 44.8204C138.982 45.9539 141.283 46.5207 143.833 46.5207Z" fill="white"/>
<path d="M176.611 21.6961C177.75 19.293 179.435 17.4793 181.667 16.255C183.945 15.0308 186.746 14.4187 190.071 14.4187V19.1116L188.91 19.0436C185.129 19.0436 182.168 20.1998 180.028 22.5122C177.887 24.8247 176.816 28.0666 176.816 32.238V50.4655H171.965V14.6908H176.611V21.6961Z" fill="white"/>
<path d="M198.855 14.6908H203.706V50.4655H198.855V14.6908Z" fill="white"/>
<path d="M250 0V50.4655H245.354V43.3921C243.896 45.7953 241.96 47.6316 239.546 48.9012C237.178 50.1707 234.49 50.8055 231.484 50.8055C228.113 50.8055 225.061 50.0347 222.328 48.4931C219.595 46.9515 217.454 44.7977 215.906 42.0319C214.357 39.266 213.583 36.1148 213.583 32.5781C213.583 29.0415 214.357 25.8902 215.906 23.1243C217.454 20.3585 219.595 18.2274 222.328 16.7311C225.061 15.1895 228.113 14.4187 231.484 14.4187C234.399 14.4187 237.018 15.0308 239.341 16.255C241.71 17.4339 243.646 19.1796 245.149 21.492V0H250ZM231.894 46.5207C234.399 46.5207 236.654 45.9539 238.658 44.8204C240.708 43.6415 242.302 41.9865 243.441 39.8555C244.625 37.7244 245.217 35.2986 245.217 32.5781C245.217 29.8576 244.625 27.4318 243.441 25.3007C242.302 23.1697 240.708 21.5374 238.658 20.4038C236.654 19.2249 234.399 18.6355 231.894 18.6355C229.343 18.6355 227.043 19.2249 224.993 20.4038C222.989 21.5374 221.395 23.1697 220.21 25.3007C219.071 27.4318 218.502 29.8576 218.502 32.5781C218.502 35.2986 219.071 37.7244 220.21 39.8555C221.395 41.9865 222.989 43.6415 224.993 44.8204C227.043 45.9539 229.343 46.5207 231.894 46.5207Z" fill="white"/>
<path d="M198.787 61.9596C199.47 62.6397 200.312 62.9798 201.315 62.9798C202.317 62.9798 203.159 62.6397 203.843 61.9596C204.526 61.2795 204.867 59.4431 204.867 59.4431C204.867 59.4431 204.526 57.7655 203.843 57.1307C203.159 56.4506 202.317 56.1105 201.315 56.1105C200.312 56.1105 199.47 56.4506 198.787 57.1307C198.103 57.8108 197.762 58.6043 197.762 59.5112C197.762 60.4633 198.103 61.2795 198.787 61.9596Z" fill="white"/>
<path d="M198.787 6.83554C199.47 7.51566 200.312 7.85572 201.315 7.85572C202.317 7.85572 203.159 7.51566 203.843 6.83554C204.526 6.15541 204.867 4.31906 204.867 4.31906C204.867 4.31906 204.526 2.64141 203.843 2.00662C203.159 1.3265 202.317 0.986434 201.315 0.986434C200.312 0.986434 199.47 1.3265 198.787 2.00662C198.103 2.68675 197.762 3.48024 197.762 4.38707C197.762 5.33925 198.103 6.15541 198.787 6.83554Z" fill="white"/>
<path d="M13.12 120.36C14.4267 120.36 15.6267 120.133 16.72 119.68C17.84 119.2 18.7867 118.507 19.56 117.6L21.16 119.44C20.2267 120.56 19.0667 121.413 17.68 122C16.2933 122.587 14.76 122.88 13.08 122.88C10.92 122.88 9 122.427 7.32 121.52C5.64 120.587 4.33333 119.307 3.4 117.68C2.46667 116.053 2 114.213 2 112.16C2 110.107 2.44 108.267 3.32 106.64C4.22667 105.013 5.46667 103.747 7.04 102.84C8.61333 101.933 10.4 101.48 12.4 101.48C14.2667 101.48 15.9467 101.907 17.44 102.76C18.96 103.613 20.16 104.8 21.04 106.32C21.9467 107.84 22.4267 109.573 22.48 111.52L5.2 114.88C5.73333 116.587 6.69333 117.933 8.08 118.92C9.49333 119.88 11.1733 120.36 13.12 120.36ZM12.4 103.92C10.9333 103.92 9.61333 104.267 8.44 104.96C7.29333 105.627 6.38667 106.573 5.72 107.8C5.08 109 4.76 110.387 4.76 111.96C4.76 112.36 4.77333 112.653 4.8 112.84L19.64 109.96C19.32 108.2 18.5067 106.76 17.2 105.64C15.8933 104.493 14.2933 103.92 12.4 103.92Z" fill="#00C0EB"/>
<path d="M41.0747 122.68L34.3947 113.88L27.6747 122.68H24.4747L32.7947 111.88L24.8747 101.64H28.0747L34.3947 109.88L40.7147 101.64H43.8347L35.9147 111.88L44.3147 122.68H41.0747Z" fill="#00C0EB"/>
<path d="M67.6113 101.64V120.12C67.6113 123.693 66.7979 126.333 65.1712 128.04C63.5446 129.773 61.0912 130.64 57.8112 130.64C55.9712 130.64 52.3132 130.267 50.6599 129.68C45.7486 128.1 42.088 123.693 41.0747 122.68H44.3147C45.2214 123.587 47.0788 125.6 51.4999 127.28C52.8332 127.787 56.1712 128.12 57.6912 128.12C60.1179 128.12 61.9046 127.493 63.0513 126.24C64.1979 125.013 64.7713 123.093 64.7713 120.48V118.04C64.0246 119.267 62.9979 120.213 61.6912 120.88C60.4112 121.547 58.9579 121.88 57.3312 121.88C54.5846 121.88 52.4112 121.12 50.8112 119.6C49.2379 118.053 48.4512 115.8 48.4512 112.84V101.64H51.2912V112.56C51.2912 114.773 51.8379 116.453 52.9313 117.6C54.0246 118.747 55.5846 119.32 57.6113 119.32C59.8246 119.32 61.5712 118.653 62.8512 117.32C64.1312 115.96 64.7713 114.08 64.7713 111.68V101.64H67.6113Z" fill="#00C0EB"/>
<path d="M86.4053 101.48C88.3786 101.48 90.1653 101.933 91.7653 102.84C93.3653 103.72 94.6186 104.973 95.5253 106.6C96.432 108.227 96.8853 110.08 96.8853 112.16C96.8853 114.24 96.432 116.093 95.5253 117.72C94.6186 119.347 93.3653 120.613 91.7653 121.52C90.1653 122.427 88.3786 122.88 86.4053 122.88C84.6453 122.88 83.0586 122.507 81.6453 121.76C80.2586 121.013 79.1386 119.933 78.2853 118.52V122.68H75.5653V93H78.4053V105.64C79.2853 104.28 80.4053 103.253 81.7653 102.56C83.152 101.84 84.6986 101.48 86.4053 101.48ZM86.2053 120.36C87.672 120.36 89.0053 120.027 90.2053 119.36C91.4053 118.667 92.3386 117.693 93.0053 116.44C93.6986 115.187 94.0453 113.76 94.0453 112.16C94.0453 110.56 93.6986 109.133 93.0053 107.88C92.3386 106.627 91.4053 105.667 90.2053 105C89.0053 104.307 87.672 103.96 86.2053 103.96C84.712 103.96 83.3653 104.307 82.1653 105C80.992 105.667 80.0586 106.627 79.3653 107.88C78.6986 109.133 78.3653 110.56 78.3653 112.16C78.3653 113.76 78.6986 115.187 79.3653 116.44C80.0586 117.693 80.992 118.667 82.1653 119.36C83.3653 120.027 84.712 120.36 86.2053 120.36Z" fill="#00C0EB"/>
<path d="M105.395 105.76C106.061 104.347 107.048 103.28 108.355 102.56C109.688 101.84 111.328 101.48 113.275 101.48V104.24L112.595 104.2C110.381 104.2 108.648 104.88 107.395 106.24C106.141 107.6 105.515 109.507 105.515 111.96V122.68H102.675V101.64H105.395V105.76Z" fill="#00C0EB"/>
<path d="M118.417 101.64H121.257V122.68H118.417V101.64Z" fill="#00C0EB"/>
<path d="M148.359 93V122.68H145.639V118.52C144.786 119.933 143.652 121.013 142.239 121.76C140.852 122.507 139.279 122.88 137.519 122.88C135.546 122.88 133.759 122.427 132.159 121.52C130.559 120.613 129.306 119.347 128.399 117.72C127.492 116.093 127.039 114.24 127.039 112.16C127.039 110.08 127.492 108.227 128.399 106.6C129.306 104.973 130.559 103.72 132.159 102.84C133.759 101.933 135.546 101.48 137.519 101.48C139.226 101.48 140.759 101.84 142.119 102.56C143.506 103.253 144.639 104.28 145.519 105.64V93H148.359ZM137.759 120.36C139.226 120.36 140.546 120.027 141.719 119.36C142.919 118.667 143.852 117.693 144.519 116.44C145.212 115.187 145.559 113.76 145.559 112.16C145.559 110.56 145.212 109.133 144.519 107.88C143.852 106.627 142.919 105.667 141.719 105C140.546 104.307 139.226 103.96 137.759 103.96C136.266 103.96 134.919 104.307 133.719 105C132.546 105.667 131.612 106.627 130.919 107.88C130.252 109.133 129.919 110.56 129.919 112.16C129.919 113.76 130.252 115.187 130.919 116.44C131.612 117.693 132.546 118.667 133.719 119.36C134.919 120.027 136.266 120.36 137.759 120.36Z" fill="#00C0EB"/>
<path d="M118.377 129.44C118.777 129.84 119.27 130.04 119.857 130.04C120.444 130.04 120.937 129.84 121.337 129.44C121.737 129.04 121.937 127.96 121.937 127.96C121.937 127.96 121.737 126.973 121.337 126.6C120.937 126.2 120.444 126 119.857 126C119.27 126 118.777 126.2 118.377 126.6C117.977 127 117.777 127.467 117.777 128C117.777 128.56 117.977 129.04 118.377 129.44Z" fill="#00C0EB"/>
<path d="M118.377 97.0201C118.777 97.4201 119.27 97.6201 119.857 97.6201C120.444 97.6201 120.937 97.4201 121.337 97.0201C121.737 96.6201 121.937 95.5401 121.937 95.5401C121.937 95.5401 121.737 94.5535 121.337 94.1801C120.937 93.7801 120.444 93.5801 119.857 93.5801C119.27 93.5801 118.777 93.7801 118.377 94.1801C117.977 94.5801 117.777 95.0468 117.777 95.5801C117.777 96.1401 117.977 96.6201 118.377 97.0201Z" fill="#00C0EB"/>
</svg>
